<<<<<<< HEAD
m_EditorVersion: 5.3.4f1
=======
<<<<<<< HEAD
m_EditorVersion: 5.3.1p2
=======
m_EditorVersion: 5.3.3p3
>>>>>>> 893e800af5cd30c75764b013bf873fd8dcab3d0d
>>>>>>> 4498e71818552c4105caa0bd7630da2ff50a76a9
m_StandardAssetsVersion: 0
